The drake R package
…
---

---

```r
loadd(data, verbose = 0)
data
## # A tibble: 150 x 6
##     X__1 Sepal.Length Sepal.Width Petal.Length Petal.Width
##    <dbl>        <dbl>       <dbl>        <dbl>       <dbl>
##  1  1.00         5.10        3.50         1.40       0.200
##  2  2.00         4.90        3.00         1.40       0.200
##  3  3.00         4.70        3.20         1.30       0.200
##  4  4.00         4.60        3.10         1.50       0.200
##  5  5.00         5.00        3.60         1.40       0.200
##  6  6.00         5.40        3.90         1.70       0.400
##  7  7.00         4.60        3.40         1.40       0.300
##  8  8.00         5.00        3.40         1.50       0.200
##  9  9.00         4.40        2.90         1.40       0.200
## 10 10.0          4.90        3.10         1.50       0.100
## # ... with 140 more rows, and 1 more variable: Species <fct>
```
…
