Reproducible workflows with the drake R package
…
---

```r
loadd(data, hist)
data
## # A tibble: 150 x 6
##     X__1 Sepal.Length Sepal.Width Petal.Length Petal.Width
##    <dbl>        <dbl>       <dbl>        <dbl>       <dbl>
##  1    1.         5.10        3.50         1.40       0.200
##  2    2.         4.90        3.00         1.40       0.200
##  3    3.         4.70        3.20         1.30       0.200
##  4    4.         4.60        3.10         1.50       0.200
##  5    5.         5.00        3.60         1.40       0.200
##  6    6.         5.40        3.90         1.70       0.400
##  7    7.         4.60        3.40         1.40       0.300
##  8    8.         5.00        3.40         1.50       0.200
##  9    9.         4.40        2.90         1.40       0.200
## 10   10.         4.90        3.10         1.50       0.100
## # ... with 140 more rows, and 1 more variable: Species <fct>
```
…
---

---

```r
make(plan)
## target data
## target fit
## target hist
## target file "report.pdf"
readd(data)
## # A tibble: 150 x 5
##    Sepal.Length Sepal.Width Petal.Length Petal.Width Species
##           <dbl>       <dbl>        <dbl>       <dbl> <fct>  
##  1         5.10        3.50         1.40       0.200 setosa 
##  2         4.90        3.00         1.40       0.200 setosa 
##  3         4.70        3.20         1.30       0.200 setosa 
##  4         4.60        3.10         1.50       0.200 setosa 
##  5         5.00        3.60         1.40       0.200 setosa 
##  6         5.40        3.90         1.70       0.400 setosa 
##  7         4.60        3.40         1.40       0.300 setosa 
##  8         5.00        3.40         1.50       0.200 setosa 
##  9         4.40        2.90         1.40       0.200 setosa 
## 10         4.90        3.10         1.50       0.100 setosa 
## # ... with 140 more rows
```
…
